@startuml

title __PATTERN's Class Diagram__\n

  namespace fr.cnam.foad.nfa035.exam {
    namespace pattern {
      class fr.cnam.foad.nfa035.exam.pattern.MyExamDelegate {
          + delegateToString()
      }
    }
  }
  

  namespace fr.cnam.foad.nfa035.exam {
    namespace pattern {
      interface fr.cnam.foad.nfa035.exam.pattern.MyExamDelegateContract {
          {abstract} + delegateToString()
      }
    }
  }
  

  namespace fr.cnam.foad.nfa035.exam {
    namespace pattern {
      class fr.cnam.foad.nfa035.exam.pattern.MyExamFactory {
          + getCurrentExam()
      }
    }
  }
  

  fr.cnam.foad.nfa035.exam.pattern.MyExamDelegate .up.|> fr.cnam.foad.nfa035.exam.pattern.MyExamDelegateContract
  fr.cnam.foad.nfa035.exam.pattern.MyExamDelegate o-- fr.cnam.foad.nfa035.exam.model.MyWhiteExam : exam


right footer


PlantUML diagram generated by SketchIt! (https://bitbucket.org/pmesmeur/sketch.it)
For more information about this tool, please contact philippe.mesmeur@gmail.com
endfooter

@enduml
